Introduction to Statistical Learning - Chapter 5 and tidymodels
…
Uses the predict() function

‼️ new_data has an underscore

😄 This automagically creates a data frame

Get predictions

lm_fit |>
  predict(new_data = Auto) |>
  bind_cols(Auto)

# A tibble: 392 × 10
   .pred   mpg cylinders displacement horsepower weight acceleration  year origin name    
 * <dbl> <dbl>     <dbl>        <dbl>      <dbl>  <dbl>        <dbl> <dbl>  <dbl> <fct>   
 1 19.4     18         8          307        130   3504         12      70      1 chevrol…
 2 13.9     15         8          350        165   3693         11.5    70      1 buick s…
 3 16.3     18         8          318        150   3436         11      70      1 plymout…
 4 16.3     16         8          304        150   3433         12      70      1 amc reb…
 5 17.8     17         8          302        140   3449         10.5    70      1 ford to…
 6  8.68    15         8          429        198   4341         10      70      1 ford ga…
 7  5.21    14         8          454        220   4354          9      70      1 chevrol…
 8  6.00    14         8          440        215   4312          8.5    70      1 plymout…
 9  4.42    14         8          455        225   4425         10      70      1 pontiac…
10  9.95    15         8          390        190   3850          8.5    70      1 amc amb…
# ℹ 382 more rows

. . .

What does bind_cols do?

Get predictions

lm_fit |>
  predict(new_data = Auto) |>
  bind_cols(Auto)

# A tibble: 392 × 10
   .pred   mpg cylinders displacement horsepower weight acceleration  year origin name    
 * <dbl> <dbl>     <dbl>        <dbl>      <dbl>  <dbl>        <dbl> <dbl>  <dbl> <fct>   
 1 19.4     18         8          307        130   3504         12      70      1 chevrol…
 2 13.9     15         8          350        165   3693         11.5    70      1 buick s…
 3 16.3     18         8          318        150   3436         11      70      1 plymout…
 4 16.3     16         8          304        150   3433         12      70      1 amc reb…
 5 17.8     17         8          302        140   3449         10.5    70      1 ford to…
 6  8.68    15         8          429        198   4341         10      70      1 ford ga…
 7  5.21    14         8          454        220   4354          9      70      1 chevrol…
 8  6.00    14         8          440        215   4312          8.5    70      1 plymout…
 9  4.42    14         8          455        225   4425         10      70      1 pontiac…
10  9.95    15         8          390        190   3850          8.5    70      1 amc amb…
# ℹ 382 more rows
…
Edit the code below to add the original data to the predicted data.

mpg_pred <- lm_fit |> 
  predict(new_data = Auto) |> 
  ---

Get predictions

mpg_pred <- lm_fit |>
  predict(new_data = Auto) |>
  bind_cols(Auto)

mpg_pred

# A tibble: 392 × 10
   .pred   mpg cylinders displacement horsepower weight acceleration  year origin name    
 * <dbl> <dbl>     <dbl>        <dbl>      <dbl>  <dbl>        <dbl> <dbl>  <dbl> <fct>   
 1 19.4     18         8          307        130   3504         12      70      1 chevrol…
 2 13.9     15         8          350        165   3693         11.5    70      1 buick s…
 3 16.3     18         8          318        150   3436         11      70      1 plymout…
 4 16.3     16         8          304        150   3433         12      70      1 amc reb…
 5 17.8     17         8          302        140   3449         10.5    70      1 ford to…
 6  8.68    15         8          429        198   4341         10      70      1 ford ga…
 7  5.21    14         8          454        220   4354          9      70      1 chevrol…
 8  6.00    14         8          440        215   4312          8.5    70      1 plymout…
 9  4.42    14         8          455        225   4425         10      70      1 pontiac…
10  9.95    15         8          390        190   3850          8.5    70      1 amc amb…
# ℹ 382 more rows
…
<Training/Testing/Total>
<196/196/392>

Extract the training and testing data

training(Auto_split)
testing(Auto_split)

Validation set approach

Auto_train <- training(Auto_split)

Auto_train

# A tibble: 196 × 9
     mpg cylinders displacement horsepower weight acceleration  year origin name          
   <dbl>     <dbl>        <dbl>      <dbl>  <dbl>        <dbl> <dbl>  <dbl> <fct>         
 1  37.7         4           89         62   2050         17.3    81      3 toyota tercel 
 2  27           4           97         60   1834         19      71      2 volkswagen mo…
 3  22           6          232        112   2835         14.7    82      1 ford granada l
 4  16           6          250        100   3781         17      74      1 chevrolet che…
 5  25           4           90         71   2223         16.5    75      2 volkswagen da…
 6  18           6          232        100   2945         16      73      1 amc hornet    
 7  38.1         4           89         60   1968         18.8    80      3 toyota coroll…
 8  23           4           97         54   2254         23.5    72      2 volkswagen ty…
 9  15           8          302        130   4295         14.9    77      1 mercury couga…
10  34           4          108         70   2245         16.9    82      3 toyota corolla
# ℹ 186 more rows
…
